<?xml version="1.0" encoding="UTF-8" standalone="no"?>
<svg width="32px" height="32px" viewBox="0 0 32 32" version="1.1" xmlns="http://www.w3.org/2000/svg" xmlns:xlink="http://www.w3.org/1999/xlink">
    <!-- Generator: sketchtool 3.7.1 (28215) - http://www.bohemiancoding.com/sketch -->
    <title>6B701F92-C14C-4C16-AB58-985C815E36A7</title>
    <desc>Created with sketchtool.</desc>
    <defs></defs>
    <g id="Page-1" stroke="none" stroke-width="1" fill="none" fill-rule="evenodd">
        <g id="icons" transform="translate(-270.000000, -227.000000)" fill="currentColor">
            <path d="M283.285285,238.211563 C283.28795,238.138273 283.329925,238.033003 283.386558,238.001022 C284.787057,237.220153 286.256182,236.93499 287.794599,237.521307 C289.618846,238.216893 289.810065,240.048469 289.239072,241.301056 C288.966568,241.898034 288.548817,242.387743 288.067103,242.830146 C287.712648,243.155285 287.364855,243.489087 287.03705,243.839545 C286.621964,244.283947 286.560001,244.818295 286.709245,245.389955 C286.77454,245.637141 286.752553,245.667789 286.49937,245.668455 C286.068294,245.669788 285.636551,245.669122 285.204808,245.668455 C284.89366,245.668455 284.855683,245.629812 284.802381,245.325993 C284.660466,244.517807 284.845689,243.790907 285.378704,243.174607 C285.773136,242.718879 286.212874,242.303126 286.62796,241.864721 C286.795194,241.687493 286.961762,241.506934 287.106342,241.31105 C287.829245,240.32697 287.36219,239.244281 286.149579,239.070385 C285.176158,238.930468 284.379966,239.292919 283.666391,239.914549 C283.575112,239.993835 283.457182,240.042473 283.351912,240.105102 C283.327926,239.984507 283.289282,239.864579 283.283286,239.742651 C283.272625,239.513454 283.280621,239.282925 283.280621,239.052396 C283.280621,238.771896 283.273958,238.491396 283.285285,238.211563 M286.005664,249.515498 C285.304749,249.520162 284.7151,248.974487 284.711768,248.315546 C284.709103,247.654606 285.289424,247.102268 285.99034,247.100269 C286.697253,247.098271 287.266247,247.637949 287.265581,248.310215 C287.265581,248.974487 286.705248,249.510167 286.005664,249.515498 M293.06013,235.928256 C289.156455,232.023915 282.826225,232.023915 278.922549,235.928256 C275.177446,239.672693 275.035531,245.643137 278.474816,249.570132 L278.458826,249.568133 C278.528784,249.648752 278.60807,249.720042 278.680693,249.797996 C278.763311,249.88661 278.836601,249.979888 278.922549,250.065837 L278.942537,250.069168 C280.748795,251.871428 283.226653,252.999423 285.97968,252.999423 C288.730042,252.999423 291.206567,251.873427 293.011492,250.073832 L293.06013,250.065837 C296.963805,246.162161 296.963805,239.831931 293.06013,235.928256" id="Fill-6"></path>
        </g>
    </g>
</svg>