<?xml version="1.0" encoding="UTF-8" standalone="no"?>
<svg width="20px" height="20px" viewBox="0 0 20 20" version="1.1" xmlns="http://www.w3.org/2000/svg" xmlns:xlink="http://www.w3.org/1999/xlink">
    <!-- Generator: sketchtool 3.7.1 (28215) - http://www.bohemiancoding.com/sketch -->
    <title>CA069254-F226-4C88-B52E-AE9A26C30A72</title>
    <desc>Created with sketchtool.</desc>
    <defs></defs>
    <g id="Page-1" stroke="none" stroke-width="1" fill="none" fill-rule="evenodd">
        <g id="icons" transform="translate(-637.000000, -378.000000)">
            <g id="icon_delay" transform="translate(637.000000, 378.000000)">
                <rect id="Rectangle-264-Copy-6" fill="#D90018" x="0.0158363576" y="0" width="19.7690531" height="20" rx="28"></rect>
                <path d="M9.82415568,13.9492468 C9.90907614,13.9492468 9.9655334,14.0090982 9.9655334,14.069064 L9.9655334,13.3086984 C9.9655334,13.3686641 9.90907614,13.4285156 9.82415568,13.4285156 C9.73923522,13.4285156 9.68277796,13.3686641 9.68277796,13.3086984 L9.68277796,14.069064 C9.68277796,14.0090982 9.73923522,13.9492468 9.82415568,13.9492468 L9.82415568,13.9492468 Z M9.82415568,14.9492468 C10.3049951,14.9492468 10.682778,14.5487515 10.682778,14.069064 L10.682778,13.3086984 C10.682778,12.8290109 10.3049951,12.4285156 9.82415568,12.4285156 C9.34331623,12.4285156 8.9655334,12.8290109 8.9655334,13.3086984 L8.9655334,14.069064 C8.9655334,14.5487515 9.34331623,14.9492468 9.82415568,14.9492468 L9.82415568,14.9492468 Z M9.82415568,10.6153362 C9.90907614,10.6153362 9.9655334,10.6751877 9.9655334,10.7351534 L9.9655334,6.93332564 C9.9655334,6.99329137 9.90907614,7.05314286 9.82415568,7.05314286 C9.73923522,7.05314286 9.68277796,6.99329137 9.68277796,6.93332564 L9.68277796,10.7351534 C9.68277796,10.6751877 9.73923522,10.6153362 9.82415568,10.6153362 L9.82415568,10.6153362 Z M9.82415568,11.6153362 C10.3049951,11.6153362 10.682778,11.214841 10.682778,10.7351534 L10.682778,6.93332564 C10.682778,6.45363812 10.3049951,6.05314286 9.82415568,6.05314286 C9.34331623,6.05314286 8.9655334,6.45363812 8.9655334,6.93332564 L8.9655334,10.7351534 C8.9655334,11.214841 9.34331623,11.6153362 9.82415568,11.6153362 L9.82415568,11.6153362 Z" id="Shape" fill="#FFFFFF"></path>
            </g>
        </g>
    </g>
</svg>